1_ano/2_semestre/LSD/Treino/Guiao_4/simulation/qsim/FlipFlopD_Demo.msim.vcd
$comment
	File created using the following command:
		vcd file FlipFlopD_Demo.msim.vcd -direction
$end
$date
	Sat Apr 17 15:30:18 2021
$end
$version
	ModelSim Version 10.5b
$end
$timescale
	1ps
$end

$scope module flipflopd_vhd_vec_tst $end
$var wire 1 ! clk $end
$var wire 1 " d $end
$var wire 1 # q $end
$var wire 1 $ reset $end
$var wire 1 % set $end

$scope module i1 $end
$var wire 1 & gnd $end
$var wire 1 ' vcc $end
$var wire 1 ( unknown $end
$var wire 1 ) devoe $end
$var wire 1 * devclrn $end
$var wire 1 + devpor $end
$var wire 1 , ww_devoe $end
$var wire 1 - ww_devclrn $end
$var wire 1 . ww_devpor $end
$var wire 1 / ww_clk $end
$var wire 1 0 ww_reset $end
$var wire 1 1 ww_set $end
$var wire 1 2 ww_d $end
$var wire 1 3 ww_q $end
$var wire 1 4 \q~output_o\ $end
$var wire 1 5 \clk~input_o\ $end
$var wire 1 6 \set~input_o\ $end
$var wire 1 7 \d~input_o\ $end
$var wire 1 8 \reset~input_o\ $end
$var wire 1 9 \q~0_combout\ $end
$var wire 1 : \q~reg0_q\ $end
$upscope $end
$upscope $end
$enddefinitions $end
#0
$dumpvars
0!
0"
0#
0$
0%
0&
1'
x(
1)
1*
1+
1,
1-
1.
0/
00
01
02
03
04
05
06
07
08
09
0:
$end
#25000
1!
1/
15
#50000
0!
0/
05
#60000
1"
12
17
19
#75000
1!
1/
15
1:
14
13
1#
#100000
0!
1$
0/
10
18
05
09
#125000
1!
1/
15
0:
04
03
0#
#150000
0!
0/
05
#160000
0$
00
08
19
#175000
1!
1/
15
1:
14
13
1#
#200000
0!
0/
05
#220000
0"
02
07
09
#225000
1!
1/
15
0:
04
03
0#
#250000
0!
0/
05
#275000
1!
1/
15
#300000
0!
1"
0/
12
17
05
19
#325000
1!
1/
15
1:
14
13
1#
#350000
0!
0/
05
#360000
0"
02
07
09
#375000
1!
1/
15
0:
04
03
0#
#400000
0!
0/
05
#425000
1!
1/
15
#450000
0!
0/
05
#475000
1!
1/
15
#480000
1"
12
17
19
#500000
0!
0/
05
#525000
1!
1/
15
1:
14
13
1#
#550000
0!
0/
05
#575000
1!
1/
15
#600000
0!
0/
05
#625000
1!
1/
15
#640000
0"
02
07
09
#650000
0!
0/
05
#675000
1!
1/
15
0:
04
03
0#
#700000
0!
0/
05
#725000
1!
1/
15
#750000
0!
0/
05
#775000
1!
1/
15
#800000
0!
1"
0/
12
17
05
19
#820000
0"
02
07
09
#825000
1!
1/
15
#850000
0!
0/
05
#860000
1%
11
16
19
#875000
1!
1/
15
1:
14
13
1#
#900000
0!
0/
05
#925000
1!
1/
15
#940000
0%
01
06
09
#950000
0!
0/
05
#975000
1!
1/
15
0:
04
03
0#
