1_ano/2_semestre/LSD/Aula_1/simulation/qsim/GateDemo.msim.vcd
$comment
	File created using the following command:
		vcd file GateDemo.msim.vcd -direction
$end
$date
	Mon Mar 22 13:34:10 2021
$end
$version
	ModelSim Version 10.5b
$end
$timescale
	1ps
$end

$scope module GateDemo_vlg_vec_tst $end
$var reg 1 ! in_0 $end
$var reg 1 " in_1 $end
$var wire 1 # led_0 $end

$scope module i1 $end
$var wire 1 $ gnd $end
$var wire 1 % vcc $end
$var wire 1 & unknown $end
$var tri1 1 ' devclrn $end
$var tri1 1 ( devpor $end
$var tri1 1 ) devoe $end
$var wire 1 * led_0~output_o $end
$var wire 1 + in_0~input_o $end
$var wire 1 , in_1~input_o $end
$var wire 1 - and_0~combout $end
$upscope $end
$upscope $end
$enddefinitions $end
#0
$dumpvars
1!
0"
0#
0$
1%
x&
1'
1(
1)
0*
1+
0,
0-
$end
#60000
1"
1,
1-
1*
1#
#200000
0!
0"
0+
0,
0-
0*
0#
#260000
1!
1+
#400000
0!
0+
#500000
1"
1,
#620000
0"
0,
#760000
1"
1,
#780000
1!
1+
1-
1*
1#
#860000
0!
0+
0-
0*
0#
#880000
0"
0,
