1_ano/2_semestre/LSD/Aula_3/simulation/qsim/FullAdder.msim.vcd
$comment
	File created using the following command:
		vcd file FullAdder.msim.vcd -direction
$end
$date
	Mon Apr 05 16:17:20 2021
$end
$version
	ModelSim Version 10.5b
$end
$timescale
	1ps
$end

$scope module alu4_vhd_vec_tst $end
$var wire 1 ! a [3] $end
$var wire 1 " a [2] $end
$var wire 1 # a [1] $end
$var wire 1 $ a [0] $end
$var wire 1 % b [3] $end
$var wire 1 & b [2] $end
$var wire 1 ' b [1] $end
$var wire 1 ( b [0] $end
$var wire 1 ) m [3] $end
$var wire 1 * m [2] $end
$var wire 1 + m [1] $end
$var wire 1 , m [0] $end
$var wire 1 - op [2] $end
$var wire 1 . op [1] $end
$var wire 1 / op [0] $end
$var wire 1 0 r [3] $end
$var wire 1 1 r [2] $end
$var wire 1 2 r [1] $end
$var wire 1 3 r [0] $end

$scope module i1 $end
$var wire 1 4 gnd $end
$var wire 1 5 vcc $end
$var wire 1 6 unknown $end
$var wire 1 7 devoe $end
$var wire 1 8 devclrn $end
$var wire 1 9 devpor $end
$var wire 1 : ww_devoe $end
$var wire 1 ; ww_devclrn $end
$var wire 1 < ww_devpor $end
$var wire 1 = ww_a [3] $end
$var wire 1 > ww_a [2] $end
$var wire 1 ? ww_a [1] $end
$var wire 1 @ ww_a [0] $end
$var wire 1 A ww_op [2] $end
$var wire 1 B ww_op [1] $end
$var wire 1 C ww_op [0] $end
$var wire 1 D ww_b [3] $end
$var wire 1 E ww_b [2] $end
$var wire 1 F ww_b [1] $end
$var wire 1 G ww_b [0] $end
$var wire 1 H ww_r [3] $end
$var wire 1 I ww_r [2] $end
$var wire 1 J ww_r [1] $end
$var wire 1 K ww_r [0] $end
$var wire 1 L ww_m [3] $end
$var wire 1 M ww_m [2] $end
$var wire 1 N ww_m [1] $end
$var wire 1 O ww_m [0] $end
$var wire 1 P \r[0]~output_o\ $end
$var wire 1 Q \r[1]~output_o\ $end
$var wire 1 R \r[2]~output_o\ $end
$var wire 1 S \r[3]~output_o\ $end
$var wire 1 T \m[0]~output_o\ $end
$var wire 1 U \m[1]~output_o\ $end
$var wire 1 V \m[2]~output_o\ $end
$var wire 1 W \m[3]~output_o\ $end
$var wire 1 X \b[0]~input_o\ $end
$var wire 1 Y \a[0]~input_o\ $end
$var wire 1 Z \op[1]~input_o\ $end
$var wire 1 [ \op[0]~input_o\ $end
$var wire 1 \ \Mod0|auto_generated|divider|divider|add_sub_3_result_int[0]~0_combout\ $end
$var wire 1 ] \a[3]~input_o\ $end
$var wire 1 ^ \b[3]~input_o\ $end
$var wire 1 _ \b[2]~input_o\ $end
$var wire 1 ` \b[1]~input_o\ $end
$var wire 1 a \a[2]~input_o\ $end
$var wire 1 b \Mod0|auto_generated|divider|divider|StageOut[5]~0_combout\ $end
$var wire 1 c \Mod0|auto_generated|divider|divider|StageOut[5]~1_combout\ $end
$var wire 1 d \Mod0|auto_generated|divider|divider|selnose[5]~0_combout\ $end
$var wire 1 e \Mod0|auto_generated|divider|divider|StageOut[4]~2_combout\ $end
$var wire 1 f \a[1]~input_o\ $end
$var wire 1 g \Mod0|auto_generated|divider|divider|add_sub_2_result_int[0]~1\ $end
$var wire 1 h \Mod0|auto_generated|divider|divider|add_sub_2_result_int[1]~3\ $end
$var wire 1 i \Mod0|auto_generated|divider|divider|add_sub_2_result_int[2]~4_combout\ $end
$var wire 1 j \Mod0|auto_generated|divider|divider|add_sub_2_result_int[2]~5\ $end
$var wire 1 k \Mod0|auto_generated|divider|divider|add_sub_2_result_int[3]~6_combout\ $end
$var wire 1 l \Mod0|auto_generated|divider|divider|StageOut[10]~3_combout\ $end
$var wire 1 m \Mod0|auto_generated|divider|divider|add_sub_2_result_int[1]~2_combout\ $end
$var wire 1 n \Mod0|auto_generated|divider|divider|StageOut[9]~4_combout\ $end
$var wire 1 o \Mod0|auto_generated|divider|divider|add_sub_2_result_int[0]~0_combout\ $end
$var wire 1 p \Mod0|auto_generated|divider|divider|StageOut[8]~5_combout\ $end
$var wire 1 q \Mod0|auto_generated|divider|divider|add_sub_3_result_int[0]~1\ $end
$var wire 1 r \Mod0|auto_generated|divider|divider|add_sub_3_result_int[1]~3\ $end
$var wire 1 s \Mod0|auto_generated|divider|divider|add_sub_3_result_int[2]~5\ $end
$var wire 1 t \Mod0|auto_generated|divider|divider|add_sub_3_result_int[3]~7\ $end
$var wire 1 u \Mod0|auto_generated|divider|divider|add_sub_3_result_int[4]~8_combout\ $end
$var wire 1 v \Mux3~0_combout\ $end
$var wire 1 w \Mux3~1_combout\ $end
$var wire 1 x \Mux3~2_combout\ $end
$var wire 1 y \op[2]~input_o\ $end
$var wire 1 z \Mux3~3_combout\ $end
$var wire 1 { \Mult0|auto_generated|op_3~0_combout\ $end
$var wire 1 | \Mux3~4_combout\ $end
$var wire 1 } \Add0~0_combout\ $end
$var wire 1 ~ \Add0~2_cout\ $end
$var wire 1 !! \Add0~3_combout\ $end
$var wire 1 "! \Mux3~5_combout\ $end
$var wire 1 #! \Div0|auto_generated|divider|divider|add_sub_2_result_int[0]~1\ $end
$var wire 1 $! \Div0|auto_generated|divider|divider|add_sub_2_result_int[1]~3\ $end
$var wire 1 %! \Div0|auto_generated|divider|divider|add_sub_2_result_int[2]~4_combout\ $end
$var wire 1 &! \Div0|auto_generated|divider|divider|add_sub_2_result_int[2]~5\ $end
$var wire 1 '! \Div0|auto_generated|divider|divider|add_sub_2_result_int[3]~6_combout\ $end
$var wire 1 (! \Div0|auto_generated|divider|divider|StageOut[10]~0_combout\ $end
$var wire 1 )! \Div0|auto_generated|divider|divider|add_sub_2_result_int[1]~2_combout\ $end
$var wire 1 *! \Div0|auto_generated|divider|divider|StageOut[9]~1_combout\ $end
$var wire 1 +! \Div0|auto_generated|divider|divider|add_sub_2_result_int[0]~0_combout\ $end
$var wire 1 ,! \Div0|auto_generated|divider|divider|StageOut[8]~2_combout\ $end
$var wire 1 -! \Div0|auto_generated|divider|divider|add_sub_3_result_int[0]~1_cout\ $end
$var wire 1 .! \Div0|auto_generated|divider|divider|add_sub_3_result_int[1]~3_cout\ $end
$var wire 1 /! \Div0|auto_generated|divider|divider|add_sub_3_result_int[2]~5_cout\ $end
$var wire 1 0! \Div0|auto_generated|divider|divider|add_sub_3_result_int[3]~7_cout\ $end
$var wire 1 1! \Div0|auto_generated|divider|divider|add_sub_3_result_int[4]~8_combout\ $end
$var wire 1 2! \Mux3~6_combout\ $end
$var wire 1 3! \Mult0|auto_generated|op_3~1\ $end
$var wire 1 4! \Mult0|auto_generated|op_3~2_combout\ $end
$var wire 1 5! \Mux2~2_combout\ $end
$var wire 1 6! \Mod0|auto_generated|divider|divider|add_sub_3_result_int[1]~2_combout\ $end
$var wire 1 7! \Mod0|auto_generated|divider|divider|StageOut[13]~6_combout\ $end
$var wire 1 8! \Mux2~3_combout\ $end
$var wire 1 9! \Add0~5_combout\ $end
$var wire 1 :! \Add0~4\ $end
$var wire 1 ;! \Add0~6_combout\ $end
$var wire 1 <! \Mux2~0_combout\ $end
$var wire 1 =! \Mux2~1_combout\ $end
$var wire 1 >! \Mux1~2_combout\ $end
$var wire 1 ?! \Mod0|auto_generated|divider|divider|add_sub_3_result_int[2]~4_combout\ $end
$var wire 1 @! \Mod0|auto_generated|divider|divider|StageOut[14]~7_combout\ $end
$var wire 1 A! \Mux1~3_combout\ $end
$var wire 1 B! \Mult0|auto_generated|op_1~0_combout\ $end
$var wire 1 C! \Mult0|auto_generated|op_3~3\ $end
$var wire 1 D! \Mult0|auto_generated|op_3~4_combout\ $end
$var wire 1 E! \Add0~8_combout\ $end
$var wire 1 F! \Add0~7\ $end
$var wire 1 G! \Add0~9_combout\ $end
$var wire 1 H! \Mux1~0_combout\ $end
$var wire 1 I! \Mod0|auto_generated|divider|divider|selnose[5]~1_combout\ $end
$var wire 1 J! \Mux1~1_combout\ $end
$var wire 1 K! \Mult0|auto_generated|op_1~1\ $end
$var wire 1 L! \Mult0|auto_generated|op_1~2_combout\ $end
$var wire 1 M! \Mult0|auto_generated|cs2a[1]~0_combout\ $end
$var wire 1 N! \Mult0|auto_generated|op_3~5\ $end
$var wire 1 O! \Mult0|auto_generated|op_3~6_combout\ $end
$var wire 1 P! \Mux0~2_combout\ $end
$var wire 1 Q! \Mod0|auto_generated|divider|divider|add_sub_3_result_int[3]~6_combout\ $end
$var wire 1 R! \Mod0|auto_generated|divider|divider|StageOut[15]~8_combout\ $end
$var wire 1 S! \Mux0~3_combout\ $end
$var wire 1 T! \Add0~11_combout\ $end
$var wire 1 U! \Add0~10\ $end
$var wire 1 V! \Add0~12_combout\ $end
$var wire 1 W! \Mux0~0_combout\ $end
$var wire 1 X! \Mod0|auto_generated|divider|divider|selnose[0]~2_combout\ $end
$var wire 1 Y! \Mux0~1_combout\ $end
$var wire 1 Z! \Mult0|auto_generated|op_1~3\ $end
$var wire 1 [! \Mult0|auto_generated|op_1~4_combout\ $end
$var wire 1 \! \Mult0|auto_generated|op_3~7\ $end
$var wire 1 ]! \Mult0|auto_generated|op_3~8_combout\ $end
$var wire 1 ^! \m~8_combout\ $end
$var wire 1 _! \Mult0|auto_generated|op_1~5\ $end
$var wire 1 `! \Mult0|auto_generated|op_1~6_combout\ $end
$var wire 1 a! \Mult0|auto_generated|op_3~9\ $end
$var wire 1 b! \Mult0|auto_generated|op_3~10_combout\ $end
$var wire 1 c! \m~9_combout\ $end
$var wire 1 d! \Mult0|auto_generated|op_1~7\ $end
$var wire 1 e! \Mult0|auto_generated|op_1~8_combout\ $end
$var wire 1 f! \Mult0|auto_generated|op_3~11\ $end
$var wire 1 g! \Mult0|auto_generated|op_3~12_combout\ $end
$var wire 1 h! \m~10_combout\ $end
$var wire 1 i! \Mult0|auto_generated|op_1~9\ $end
$var wire 1 j! \Mult0|auto_generated|op_1~10_combout\ $end
$var wire 1 k! \Mult0|auto_generated|op_3~13\ $end
$var wire 1 l! \Mult0|auto_generated|op_3~14_combout\ $end
$var wire 1 m! \m~11_combout\ $end
$var wire 1 n! \Mult0|auto_generated|le3a\ [5] $end
$var wire 1 o! \Mult0|auto_generated|le3a\ [4] $end
$var wire 1 p! \Mult0|auto_generated|le3a\ [3] $end
$var wire 1 q! \Mult0|auto_generated|le3a\ [2] $end
$var wire 1 r! \Mult0|auto_generated|le3a\ [1] $end
$var wire 1 s! \Mult0|auto_generated|le3a\ [0] $end
$var wire 1 t! \Div0|auto_generated|divider|divider|selnose\ [19] $end
$var wire 1 u! \Div0|auto_generated|divider|divider|selnose\ [18] $end
$var wire 1 v! \Div0|auto_generated|divider|divider|selnose\ [17] $end
$var wire 1 w! \Div0|auto_generated|divider|divider|selnose\ [16] $end
$var wire 1 x! \Div0|auto_generated|divider|divider|selnose\ [15] $end
$var wire 1 y! \Div0|auto_generated|divider|divider|selnose\ [14] $end
$var wire 1 z! \Div0|auto_generated|divider|divider|selnose\ [13] $end
$var wire 1 {! \Div0|auto_generated|divider|divider|selnose\ [12] $end
$var wire 1 |! \Div0|auto_generated|divider|divider|selnose\ [11] $end
$var wire 1 }! \Div0|auto_generated|divider|divider|selnose\ [10] $end
$var wire 1 ~! \Div0|auto_generated|divider|divider|selnose\ [9] $end
$var wire 1 !" \Div0|auto_generated|divider|divider|selnose\ [8] $end
$var wire 1 "" \Div0|auto_generated|divider|divider|selnose\ [7] $end
$var wire 1 #" \Div0|auto_generated|divider|divider|selnose\ [6] $end
$var wire 1 $" \Div0|auto_generated|divider|divider|selnose\ [5] $end
$var wire 1 %" \Div0|auto_generated|divider|divider|selnose\ [4] $end
$var wire 1 &" \Div0|auto_generated|divider|divider|selnose\ [3] $end
$var wire 1 '" \Div0|auto_generated|divider|divider|selnose\ [2] $end
$var wire 1 (" \Div0|auto_generated|divider|divider|selnose\ [1] $end
$var wire 1 )" \Div0|auto_generated|divider|divider|selnose\ [0] $end
$var wire 1 *" \Mod0|auto_generated|divider|divider|selnose\ [19] $end
$var wire 1 +" \Mod0|auto_generated|divider|divider|selnose\ [18] $end
$var wire 1 ," \Mod0|auto_generated|divider|divider|selnose\ [17] $end
$var wire 1 -" \Mod0|auto_generated|divider|divider|selnose\ [16] $end
$var wire 1 ." \Mod0|auto_generated|divider|divider|selnose\ [15] $end
$var wire 1 /" \Mod0|auto_generated|divider|divider|selnose\ [14] $end
$var wire 1 0" \Mod0|auto_generated|divider|divider|selnose\ [13] $end
$var wire 1 1" \Mod0|auto_generated|divider|divider|selnose\ [12] $end
$var wire 1 2" \Mod0|auto_generated|divider|divider|selnose\ [11] $end
$var wire 1 3" \Mod0|auto_generated|divider|divider|selnose\ [10] $end
$var wire 1 4" \Mod0|auto_generated|divider|divider|selnose\ [9] $end
$var wire 1 5" \Mod0|auto_generated|divider|divider|selnose\ [8] $end
$var wire 1 6" \Mod0|auto_generated|divider|divider|selnose\ [7] $end
$var wire 1 7" \Mod0|auto_generated|divider|divider|selnose\ [6] $end
$var wire 1 8" \Mod0|auto_generated|divider|divider|selnose\ [5] $end
$var wire 1 9" \Mod0|auto_generated|divider|divider|selnose\ [4] $end
$var wire 1 :" \Mod0|auto_generated|divider|divider|selnose\ [3] $end
$var wire 1 ;" \Mod0|auto_generated|divider|divider|selnose\ [2] $end
$var wire 1 <" \Mod0|auto_generated|divider|divider|selnose\ [1] $end
$var wire 1 =" \Mod0|auto_generated|divider|divider|selnose\ [0] $end
$var wire 1 >" \Mult0|auto_generated|le4a\ [5] $end
$var wire 1 ?" \Mult0|auto_generated|le4a\ [4] $end
$var wire 1 @" \Mult0|auto_generated|le4a\ [3] $end
$var wire 1 A" \Mult0|auto_generated|le4a\ [2] $end
$var wire 1 B" \Mult0|auto_generated|le4a\ [1] $end
$var wire 1 C" \Mult0|auto_generated|le4a\ [0] $end
$var wire 1 D" \Mult0|auto_generated|le5a\ [4] $end
$var wire 1 E" \Mult0|auto_generated|le5a\ [3] $end
$var wire 1 F" \Mult0|auto_generated|le5a\ [2] $end
$var wire 1 G" \Mult0|auto_generated|le5a\ [1] $end
$var wire 1 H" \Mult0|auto_generated|le5a\ [0] $end
$upscope $end
$upscope $end
$enddefinitions $end
#0
$dumpvars
04
15
x6
17
18
19
1:
1;
1<
0P
1Q
0R
0S
0T
0U
0V
0W
0X
0Y
0Z
0[
0\
0]
0^
0_
0`
0a
1b
0c
0d
0e
1f
1g
0h
0i
1j
0k
0l
0m
0n
1o
1p
1q
0r
1s
0t
0u
0v
0w
0x
0y
0z
0{
0|
0}
0~
0!!
0"!
1#!
0$!
0%!
1&!
0'!
0(!
0)!
0*!
1+!
1,!
1-!
0.!
1/!
00!
01!
02!
03!
04!
15!
16!
17!
18!
09!
1:!
1;!
1<!
1=!
1>!
0?!
0@!
0A!
0B!
1C!
0D!
0E!
0F!
0G!
0H!
0I!
0J!
0K!
0L!
0M!
0N!
0O!
1P!
0Q!
0R!
0S!
0T!
1U!
0V!
0W!
1X!
0Y!
1Z!
0[!
1\!
0]!
0^!
0_!
0`!
0a!
0b!
0c!
1d!
0e!
1f!
0g!
0h!
0i!
1j!
0k!
0l!
0m!
0!
0"
1#
0$
0%
0&
0'
0(
0-
0.
0/
0=
0>
1?
0@
0A
0B
0C
0D
0E
0F
0G
0H
0I
1J
0K
0L
0M
0N
0O
0n!
0o!
0p!
0q!
0r!
0s!
xt!
xu!
xv!
xw!
xx!
xy!
xz!
x{!
x|!
0}!
x~!
x!"
x""
x#"
x$"
x%"
x&"
x'"
x("
x)"
x*"
x+"
x,"
x-"
x."
x/"
x0"
x1"
x2"
x3"
x4"
x5"
x6"
x7"
x8"
x9"
x:"
x;"
x<"
0="
0>"
0?"
0@"
0A"
0B"
0C"
xD"
0E"
0F"
0G"
0H"
0)
0*
0+
0,
00
01
12
03
$end
#100000
1/
1!
0#
1(
1C
0?
1=
1G
1X
1]
0f
1[
1~
19!
0>!
1A!
1E!
1S!
1T!
05!
0;!
1c
0P!
1V!
1\
0q
0b
0g
0#!
0-!
1I!
1p!
1L!
1)!
1$!
1m
1h
0c
06!
0S!
1i
1%!
0<!
08!
0V!
1W!
1G!
0A!
1;!
1!!
1"!
1H!
1Y!
1<!
0=!
0W!
07!
1l
1(!
0j
1n
0&!
1*!
1O!
1'!
1?!
1k
1Q!
0Y!
1=!
1J!
12!
1R!
0l
0n
0p
1@!
0(!
0*!
0,!
1}!
0Q
1S
1.!
16!
1r
0?!
0Q!
0J
1H
1P
1R
1Q
0S
02
10
0R!
0@!
1?!
0s
17!
0/!
1K
1I
1J
0H
13
12
11
00
10!
1Q!
1t
1@!
1u
1R!
11!
07!
0@!
0R!
#200000
0/
1#
0(
1.
1$
0C
1B
1@
1?
0G
0X
1f
1Y
1Z
0[
0~
09!
0E!
0T!
1|
1P!
1v
0!!
0:!
1p
1,!
15!
0;!
1F!
1q
1b
1g
1x
1#!
1-!
0I!
0p!
0L!
0)!
0$!
0m
0h
1c
18!
0.!
0r
17!
1S!
0"!
0<!
0=!
0H!
1Y!
1V!
1!!
1:!
1;!
0F!
0J!
02!
0?!
1s
1/!
1l
1(!
1j
1&!
0O!
0Y!
0'!
0k
1R!
00!
0t
0G!
1S
0Q
0u
01!
0}!
1H
0J
0P
0R
02
10
0K
0I
0S
03
01
0H
00
#300000
1(
0$
0!
1%
1'
1G
1F
1D
0@
0=
0]
0Y
1^
1`
1X
0o
1}
0+!
1I!
1m
1h
06!
1{
1)!
1$!
19!
1q!
1M!
1n!
0Q!
1}!
1>"
1T!
0X!
1G"
0q
1s!
0!!
0-!
1C"
0c
1d
1p!
0V!
1="
1o!
1?"
1e!
1[!
1L!
0l
0(!
1D!
1.!
0{
13!
16!
1r
1`!
1V!
0j!
0R!
1b!
1g!
1l!
1A"
1@"
1K!
0;!
1F!
0&!
1"!
07!
0j
1!!
1k
12!
1'!
1G!
0L!
0Z!
0`!
0d!
0[!
1_!
1m!
1h!
1c!
0l!
0b!
0f!
1?!
0s
17!
14!
0"!
0/!
1H!
10!
1Q!
1t
1O!
1]!
0g!
1k!
1l!
0h!
1^!
1Y!
1u
1R!
11!
1J!
02!
1=!
0Q!
1@!
1g!
0c!
0m!
1`!
0]!
0e!
1i!
1b!
1f!
1[!
0O!
0Y!
1]!
1c!
1j!
0k!
0^!
0b!
0f!
1h!
0v
0@!
0R!
1m!
1U
1V
1W
1P
0g!
1k!
0c!
1^!
1N
1M
1L
1K
0W
0U
1Q
0P
1R
1S
1T
0V
1+
1*
1)
13
0l!
0h!
0L
0N
1J
0K
1I
1H
1O
0M
1W
1V
0T
1U
0S
1,
0+
0*
0)
03
12
11
10
0m!
1L
1M
0O
1N
0H
1T
0U
0,
1+
1*
1)
00
1O
0N
0V
1,
0+
0M
0W
0*
0L
0)
#400000
1$
1!
0'
1/
1@
1=
0F
1C
1[
0`
1]
1Y
0\
1q
0!!
0:!
1-!
1c
0V!
0@"
0b
0m
0h
06!
0r
1{
03!
0)!
0$!
0.!
1r!
0q!
0M!
0o!
1H"
0n!
0?"
1E"
1v
1w
1z
0}
1~
1E!
0P!
0T!
0^!
1V!
0S!
0G!
0U!
12!
1<!
0J!
0x
0j!
1e!
0i!
1b!
1f!
1g!
0k!
1l!
0]!
1a!
0[!
0A"
1@"
1B!
0K!
1/!
0?!
1s
0`!
1W!
1j
1l
1&!
1(!
1;!
1"!
16!
0'!
1R!
0k
0t
00!
1L!
1Z!
0D!
1N!
1`!
1[!
0_!
1]!
0a!
1j!
02!
0=!
0V!
0T
0l!
0`!
0]!
1a!
0[!
0\!
01!
0u
0O
0R
1P
0,
0R!
12!
0I
1K
0Q
0P
13
01
0J
0K
03
02
1P
1K
13
#500000
0/
0%
0#
0.
1-
1"
1&
0C
0B
1A
1E
0D
0?
1>
1a
0f
0^
1_
1y
0Z
0[
0v
1}
0~
09!
1x
0|
0i
1?!
0s
0%!
0/!
1M!
1Q!
0}!
0>"
1P!
0H"
0E"
1o
0g
0p
1+!
0#!
0,!
0r!
0;!
0G"
1e
1>!
1q!
1G!
1A"
0@"
1[!
1d!
04!
1,!
06!
1p
1]!
0a!
1R!
1@"
0(!
0Q!
1@!
0l
0"!
1=!
0H!
0W!
1Y!
1;!
0F!
0w
0x
0G!
0Y!
1Q!
1t
1A!
0R!
10!
1`!
1S!
0b!
16!
07!
0e!
0]!
1a!
0g!
08!
17!
1W!
0f!
11!
0S!
1J!
1u
1R!
02!
1S
1Q
1S!
1v
0@!
0R!
0W!
1g!
1Y!
18!
0<!
1H
1J
0S
12
10
0=!
1<!
0Y!
0S!
0A!
1w
1W!
0H
0P
1R
00
1Y!
1x
0J!
0W!
1=!
0K
1I
1S
03
11
0Y!
12!
1H
0S
0Q
10
0H
0J
1Q
0R
1S
02
00
1J
0I
1H
1P
0S
12
01
10
1K
0H
13
00
#600000
1#
1.
0&
0$
0!
1'
0@
1?
0=
1B
1F
0E
0_
1`
1Z
0]
1f
0Y
1\
0q
0v
1!!
1:!
0-!
0o
1g
0+!
1#!
0;!
1F!
1B"
1V!
0@"
0w
1A!
0P!
1S!
1m
1h
06!
0{
13!
1)!
1$!
19!
0q!
1o!
1n!
0c
1i
0?!
1s
1%!
1/!
0C"
0E!
1X!
1D!
0N!
00!
0Q!
0t
1l
1(!
1b!
0g!
1k!
1l!
0[!
1_!
0B!
0&!
1*!
14!
0j
1n
0S!
1J!
0`!
1W!
1O!
0)!
0$!
0,!
0m
0h
0p
1.!
16!
1r
06!
07!
0i
1j
0n
0%!
1&!
0*!
1Y!
0b!
0W!
1@!
1k
1'!
0D!
1`!
1]!
0a!
0l!
1Q!
0u
1R!
01!
0O!
1v
1*!
1,!
1}!
1n
1p
0Y!
0/!
0'!
0(!
1?!
0s
0@!
0k
0l
1R
0n
0p
1t
0*!
0,!
0}!
10!
16!
0?!
1s
1@!
1/!
1I
1S
11
00!
0Q!
0t
11!
0/!
1u
06!
17!
1?!
0s
0@!
1H
0S
10
1Q!
1t
0v
07!
10!
0u
0R!
01!
0H
00
1v
1@!
11!
1u
1R!
0v
0@!
0R!
#700000
1$
1!
1%
0(
1@
1=
0G
1D
1^
0X
1]
1Y
1v
0!!
0:!
0V!
1@"
1q
1o
0}
1+!
1-!
0p!
0o!
1c
1n
1p
0Q!
1*!
1,!
1}!
1>"
1P!
1T!
0X!
1H"
1G"
1?"
1F"
1E"
1i!
0]!
1a!
1V!
1S!
1B!
0B"
0A"
0@"
1/!
17!
0?!
1s
1@!
1i
1l
1%!
1(!
1[!
0_!
0L!
0.!
1!!
1:!
0r
0d!
1;!
1e!
1?!
0;!
1]!
1R!
0t
00!
1d!
0[!
1\!
1D!
1W!
1b!
0j!
1l!
1Y!
0a!
0e!
01!
0u
1g!
07!
0R!
0g!
0b!
1S
1H
10
#800000
0$
0!
0%
1&
0'
1/
0"
0@
0>
0=
0F
1E
0D
1C
1[
0^
1_
0`
0]
0a
0Y
0\
0x
0!!
0e
1G!
1U!
1A"
0V!
1@"
1b
1m
16!
0s!
1{
03!
1)!
0n!
0i
0?!
0%!
0c
0n
1Q!
0*!
0}!
0>"
0H"
0G"
0?"
0F"
0E"
0v
1w
1}
1~
0P!
0S!
0:!
0i!
0]!
0B!
1B"
0A"
0@"
0/!
1R!
1?!
0s
1i
0j
1%!
0&!
0(!
0@!
0l
1b!
1f!
1g!
0k!
0l!
04!
0{
17!
1[!
1V!
0m
1n
0)!
1*!
02!
1/!
0*!
0?!
1s
0n
1]!
1l!
0g!
1'!
1(!
1k
1l
1t
1@!
10!
0`!
0[!
1O!
0D!
1j!
1;!
0W!
0l!
0Y!
0]!
0b!
11!
1u
0l
0(!
1}!
1?!
0s
0t
0@!
0/!
00!
0P
01!
0u
10!
1t
0R!
0K
03
1u
11!
1@!
1R!
0S
0@!
0R!
0H
00
#900000
1!
1%
0&
1(
0#
0.
0-
0?
1=
1G
0E
1D
0B
0A
0y
0Z
1^
0_
1X
1]
0f
0;!
0B"
0V!
1@"
1\
0q
0b
0g
0}
0#!
0-!
1p!
0i
1j
0?!
1s
0%!
1&!
1/!
1E!
0M!
1c
0p
0Q!
0,!
1>"
1C"
0T!
1E"
0w
1x
05!
0>!
1P!
0z
1H!
0J!
1S!
0A!
08!
0x
1V!
1D!
1B!
07!
1i
1%!
1B"
1A"
0G!
0U!
0'!
1(!
1Q!
0k
1l
1L!
1.!
1)!
1$!
1!!
1:!
1m
1h
1r
1`!
0O!
0<!
0=!
1b!
1?!
0s
0i
1;!
0F!
1"!
0%!
0/!
0Q!
0t
1R!
00!
0V!
1[!
0\!
0D!
1N!
0H!
1W!
1J!
1Y!
0J!
1O!
1a!
0W!
01!
0u
10!
12!
1G!
1U!
1<!
1Q!
1t
0R
1u
1=!
1V!
1H!
11!
17!
1@!
0b!
0f!
0Y!
0I
1R
0Q
01
1g!
1J!
1W!
07!
0@!
1I
0J
1P
0R
1S
02
11
1Y!
1K
0I
1H
0S
1Q
13
01
10
0H
1J
1R
12
00
1I
1S
11
1H
10
