1_ano/2_semestre/LSD/Aula_8/DrinksMachine/simulation/qsim/DrinksMachine.msim.vcd
$comment
	File created using the following command:
		vcd file DrinksMachine.msim.vcd -direction
$end
$date
	Mon May 17 16:57:20 2021
$end
$version
	ModelSim Version 10.5b
$end
$timescale
	1ps
$end

$scope module drinksfsm_vhd_vec_tst $end
$var wire 1 ! C $end
$var wire 1 " clk $end
$var wire 1 # d $end
$var wire 1 $ reset $end
$var wire 1 % V $end

$scope module i1 $end
$var wire 1 & gnd $end
$var wire 1 ' vcc $end
$var wire 1 ( unknown $end
$var wire 1 ) devoe $end
$var wire 1 * devclrn $end
$var wire 1 + devpor $end
$var wire 1 , ww_devoe $end
$var wire 1 - ww_devclrn $end
$var wire 1 . ww_devpor $end
$var wire 1 / ww_reset $end
$var wire 1 0 ww_clk $end
$var wire 1 1 ww_V $end
$var wire 1 2 ww_C $end
$var wire 1 3 ww_d $end
$var wire 1 4 \d~output_o\ $end
$var wire 1 5 \clk~input_o\ $end
$var wire 1 6 \C~input_o\ $end
$var wire 1 7 \V~input_o\ $end
$var wire 1 8 \reset~input_o\ $end
$var wire 1 9 \Selector10~0_combout\ $end
$var wire 1 : \s_nextState.E0_138~combout\ $end
$var wire 1 ; \s_currentstate~13_combout\ $end
$var wire 1 < \s_currentstate.E0~q\ $end
$var wire 1 = \Selector8~0_combout\ $end
$var wire 1 > \s_nextState.E1_130~combout\ $end
$var wire 1 ? \s_currentstate~12_combout\ $end
$var wire 1 @ \s_currentstate.E1~q\ $end
$var wire 1 A \Selector6~0_combout\ $end
$var wire 1 B \s_nextState.E2_122~combout\ $end
$var wire 1 C \s_currentstate~9_combout\ $end
$var wire 1 D \s_currentstate.E2~q\ $end
$var wire 1 E \Selector4~0_combout\ $end
$var wire 1 F \Selector4~1_combout\ $end
$var wire 1 G \s_nextState.E3_114~combout\ $end
$var wire 1 H \s_currentstate~10_combout\ $end
$var wire 1 I \s_currentstate.E3~q\ $end
$var wire 1 J \Selector1~0_combout\ $end
$var wire 1 K \Selector2~0_combout\ $end
$var wire 1 L \Selector2~1_combout\ $end
$var wire 1 M \s_nextState.E4_106~combout\ $end
$var wire 1 N \s_currentstate~11_combout\ $end
$var wire 1 O \s_currentstate.E4~q\ $end
$var wire 1 P \Selector1~1_combout\ $end
$var wire 1 Q \s_nextState.E5_98~combout\ $end
$var wire 1 R \s_currentstate~8_combout\ $end
$var wire 1 S \s_currentstate.E5~q\ $end
$upscope $end
$upscope $end
$enddefinitions $end
#0
$dumpvars
0!
0"
0#
0$
0%
0&
1'
x(
1)
1*
1+
1,
1-
1.
0/
00
01
02
03
04
05
06
07
08
09
1:
0;
0<
0=
0>
0?
0@
0A
0B
0C
0D
0E
0F
0G
0H
0I
0J
0K
0L
0M
0N
0O
0P
0Q
0R
0S
$end
#20000
1"
10
15
#40000
0"
00
05
#50000
1%
11
17
19
1=
1>
0:
1;
1?
#60000
1"
10
15
1<
1@
1A
0=
0>
1B
1C
0?
#80000
0"
00
05
#90000
0%
01
07
1=
0A
0B
1>
1?
0C
#100000
1"
10
15
#120000
0"
00
05
#130000
1%
11
17
0=
1A
1B
0>
0?
1C
#140000
1"
10
15
0@
1D
1F
0A
0B
1G
1H
0C
#160000
0"
0%
00
01
07
05
1A
0F
0G
1B
1C
0H
#180000
1"
10
15
#190000
1%
11
17
0A
1F
1G
0B
0C
1H
#200000
0"
00
05
#220000
1"
10
15
0D
1I
1L
0F
0G
1M
1N
0H
#230000
0%
01
07
1E
0L
0M
1F
1G
0N
1H
#240000
0"
1!
00
12
16
05
0E
1J
1P
0F
0G
1Q
1R
0H
#260000
1"
10
15
0I
1S
0J
0P
14
13
1#
#280000
0"
00
05
#300000
1"
10
15
#320000
0"
0!
00
02
06
05
#340000
1"
10
15
#360000
0"
00
05
#380000
1"
10
15
#400000
0"
00
05
#420000
1"
10
15
#440000
0"
00
05
#460000
1"
10
15
#480000
0"
00
05
#500000
1"
10
15
#520000
0"
00
05
#540000
1"
10
15
#560000
0"
00
05
#580000
1"
10
15
#600000
0"
00
05
#620000
1"
10
15
#640000
0"
00
05
#660000
1"
10
15
#680000
0"
00
05
#700000
1"
10
15
#720000
0"
00
05
#740000
1"
10
15
#760000
0"
00
05
#780000
1"
10
15
#800000
0"
00
05
#820000
1"
10
15
#840000
0"
00
05
#860000
1"
10
15
#880000
0"
00
05
#900000
1"
10
15
#920000
0"
00
05
#940000
1"
10
15
#960000
0"
00
05
#980000
1"
10
15
