1_ano/2_semestre/LSD/Aula_2/Parte_2/simulation/qsim/Mux2_1Demo.msim.vcd
$comment
	File created using the following command:
		vcd file Mux2_1Demo.msim.vcd -direction
$end
$date
	Mon Mar 22 15:50:36 2021
$end
$version
	ModelSim Version 10.5b
$end
$timescale
	1ps
$end

$scope module mux21_1_vlg_vec_tst $end
$var reg 2 ! inputs [1:0] $end
$var reg 1 " sel $end
$var wire 1 # outMux $end

$scope module i1 $end
$var wire 1 $ gnd $end
$var wire 1 % vcc $end
$var wire 1 & unknown $end
$var tri1 1 ' devclrn $end
$var tri1 1 ( devpor $end
$var tri1 1 ) devoe $end
$var wire 1 * outMux~output_o $end
$var wire 1 + inputs[1]~input_o $end
$var wire 1 , inputs[0]~input_o $end
$var wire 1 - sel~input_o $end
$var wire 1 . outMux~0_combout $end
$upscope $end
$upscope $end
$enddefinitions $end
#0
$dumpvars
b1 !
0"
1#
0$
1%
x&
1'
1(
1)
1*
0+
1,
0-
1.
$end
#40000
b11 !
1+
#80000
b10 !
0,
0.
0*
0#
#100000
1"
1-
1.
1*
1#
#120000
b0 !
0+
0.
0*
0#
#160000
b10 !
1+
1.
1*
1#
#200000
b11 !
1,
#240000
b1 !
0+
0.
0*
0#
#320000
b0 !
b10 !
0,
1+
1.
1*
1#
#360000
b0 !
0+
0.
0*
0#
#420000
0"
0-
#440000
b1 !
b11 !
1,
1+
1.
1*
1#
#480000
b1 !
0+
#520000
b0 !
b10 !
0,
1+
0.
0*
0#
#560000
b0 !
0+
#600000
b1 !
1,
1.
1*
1#
#620000
1"
1-
0.
0*
0#
#640000
b11 !
1+
1.
1*
1#
#680000
b10 !
0,
#760000
b11 !
1,
#800000
b1 !
0+
0.
0*
0#
#880000
b0 !
b10 !
0,
1+
1.
1*
1#
#920000
b0 !
0+
0.
0*
0#
#960000
0"
b1 !
0-
1,
1.
1*
1#
