1_ano/2_semestre/LSD/Aula_4/simulation/qsim/FlipFlopD.msim.vcd
$comment
	File created using the following command:
		vcd file FlipFlopD.msim.vcd -direction
$end
$date
	Mon Apr 12 17:00:49 2021
$end
$version
	ModelSim Version 10.5b
$end
$timescale
	1ps
$end

$scope module freqdivider_vhd_vec_tst $end
$var wire 1 ! clkIn $end
$var wire 1 " clkOut $end
$var wire 1 # debug [31] $end
$var wire 1 $ debug [30] $end
$var wire 1 % debug [29] $end
$var wire 1 & debug [28] $end
$var wire 1 ' debug [27] $end
$var wire 1 ( debug [26] $end
$var wire 1 ) debug [25] $end
$var wire 1 * debug [24] $end
$var wire 1 + debug [23] $end
$var wire 1 , debug [22] $end
$var wire 1 - debug [21] $end
$var wire 1 . debug [20] $end
$var wire 1 / debug [19] $end
$var wire 1 0 debug [18] $end
$var wire 1 1 debug [17] $end
$var wire 1 2 debug [16] $end
$var wire 1 3 debug [15] $end
$var wire 1 4 debug [14] $end
$var wire 1 5 debug [13] $end
$var wire 1 6 debug [12] $end
$var wire 1 7 debug [11] $end
$var wire 1 8 debug [10] $end
$var wire 1 9 debug [9] $end
$var wire 1 : debug [8] $end
$var wire 1 ; debug [7] $end
$var wire 1 < debug [6] $end
$var wire 1 = debug [5] $end
$var wire 1 > debug [4] $end
$var wire 1 ? debug [3] $end
$var wire 1 @ debug [2] $end
$var wire 1 A debug [1] $end
$var wire 1 B debug [0] $end
$var wire 1 C k [31] $end
$var wire 1 D k [30] $end
$var wire 1 E k [29] $end
$var wire 1 F k [28] $end
$var wire 1 G k [27] $end
$var wire 1 H k [26] $end
$var wire 1 I k [25] $end
$var wire 1 J k [24] $end
$var wire 1 K k [23] $end
$var wire 1 L k [22] $end
$var wire 1 M k [21] $end
$var wire 1 N k [20] $end
$var wire 1 O k [19] $end
$var wire 1 P k [18] $end
$var wire 1 Q k [17] $end
$var wire 1 R k [16] $end
$var wire 1 S k [15] $end
$var wire 1 T k [14] $end
$var wire 1 U k [13] $end
$var wire 1 V k [12] $end
$var wire 1 W k [11] $end
$var wire 1 X k [10] $end
$var wire 1 Y k [9] $end
$var wire 1 Z k [8] $end
$var wire 1 [ k [7] $end
$var wire 1 \ k [6] $end
$var wire 1 ] k [5] $end
$var wire 1 ^ k [4] $end
$var wire 1 _ k [3] $end
$var wire 1 ` k [2] $end
$var wire 1 a k [1] $end
$var wire 1 b k [0] $end

$scope module i1 $end
$var wire 1 c gnd $end
$var wire 1 d vcc $end
$var wire 1 e unknown $end
$var wire 1 f devoe $end
$var wire 1 g devclrn $end
$var wire 1 h devpor $end
$var wire 1 i ww_devoe $end
$var wire 1 j ww_devclrn $end
$var wire 1 k ww_devpor $end
$var wire 1 l ww_clkIn $end
$var wire 1 m ww_k [31] $end
$var wire 1 n ww_k [30] $end
$var wire 1 o ww_k [29] $end
$var wire 1 p ww_k [28] $end
$var wire 1 q ww_k [27] $end
$var wire 1 r ww_k [26] $end
$var wire 1 s ww_k [25] $end
$var wire 1 t ww_k [24] $end
$var wire 1 u ww_k [23] $end
$var wire 1 v ww_k [22] $end
$var wire 1 w ww_k [21] $end
$var wire 1 x ww_k [20] $end
$var wire 1 y ww_k [19] $end
$var wire 1 z ww_k [18] $end
$var wire 1 { ww_k [17] $end
$var wire 1 | ww_k [16] $end
$var wire 1 } ww_k [15] $end
$var wire 1 ~ ww_k [14] $end
$var wire 1 !! ww_k [13] $end
$var wire 1 "! ww_k [12] $end
$var wire 1 #! ww_k [11] $end
$var wire 1 $! ww_k [10] $end
$var wire 1 %! ww_k [9] $end
$var wire 1 &! ww_k [8] $end
$var wire 1 '! ww_k [7] $end
$var wire 1 (! ww_k [6] $end
$var wire 1 )! ww_k [5] $end
$var wire 1 *! ww_k [4] $end
$var wire 1 +! ww_k [3] $end
$var wire 1 ,! ww_k [2] $end
$var wire 1 -! ww_k [1] $end
$var wire 1 .! ww_k [0] $end
$var wire 1 /! ww_debug [31] $end
$var wire 1 0! ww_debug [30] $end
$var wire 1 1! ww_debug [29] $end
$var wire 1 2! ww_debug [28] $end
$var wire 1 3! ww_debug [27] $end
$var wire 1 4! ww_debug [26] $end
$var wire 1 5! ww_debug [25] $end
$var wire 1 6! ww_debug [24] $end
$var wire 1 7! ww_debug [23] $end
$var wire 1 8! ww_debug [22] $end
$var wire 1 9! ww_debug [21] $end
$var wire 1 :! ww_debug [20] $end
$var wire 1 ;! ww_debug [19] $end
$var wire 1 <! ww_debug [18] $end
$var wire 1 =! ww_debug [17] $end
$var wire 1 >! ww_debug [16] $end
$var wire 1 ?! ww_debug [15] $end
$var wire 1 @! ww_debug [14] $end
$var wire 1 A! ww_debug [13] $end
$var wire 1 B! ww_debug [12] $end
$var wire 1 C! ww_debug [11] $end
$var wire 1 D! ww_debug [10] $end
$var wire 1 E! ww_debug [9] $end
$var wire 1 F! ww_debug [8] $end
$var wire 1 G! ww_debug [7] $end
$var wire 1 H! ww_debug [6] $end
$var wire 1 I! ww_debug [5] $end
$var wire 1 J! ww_debug [4] $end
$var wire 1 K! ww_debug [3] $end
$var wire 1 L! ww_debug [2] $end
$var wire 1 M! ww_debug [1] $end
$var wire 1 N! ww_debug [0] $end
$var wire 1 O! ww_clkOut $end
$var wire 1 P! \debug[0]~output_o\ $end
$var wire 1 Q! \debug[1]~output_o\ $end
$var wire 1 R! \debug[2]~output_o\ $end
$var wire 1 S! \debug[3]~output_o\ $end
$var wire 1 T! \debug[4]~output_o\ $end
$var wire 1 U! \debug[5]~output_o\ $end
$var wire 1 V! \debug[6]~output_o\ $end
$var wire 1 W! \debug[7]~output_o\ $end
$var wire 1 X! \debug[8]~output_o\ $end
$var wire 1 Y! \debug[9]~output_o\ $end
$var wire 1 Z! \debug[10]~output_o\ $end
$var wire 1 [! \debug[11]~output_o\ $end
$var wire 1 \! \debug[12]~output_o\ $end
$var wire 1 ]! \debug[13]~output_o\ $end
$var wire 1 ^! \debug[14]~output_o\ $end
$var wire 1 _! \debug[15]~output_o\ $end
$var wire 1 `! \debug[16]~output_o\ $end
$var wire 1 a! \debug[17]~output_o\ $end
$var wire 1 b! \debug[18]~output_o\ $end
$var wire 1 c! \debug[19]~output_o\ $end
$var wire 1 d! \debug[20]~output_o\ $end
$var wire 1 e! \debug[21]~output_o\ $end
$var wire 1 f! \debug[22]~output_o\ $end
$var wire 1 g! \debug[23]~output_o\ $end
$var wire 1 h! \debug[24]~output_o\ $end
$var wire 1 i! \debug[25]~output_o\ $end
$var wire 1 j! \debug[26]~output_o\ $end
$var wire 1 k! \debug[27]~output_o\ $end
$var wire 1 l! \debug[28]~output_o\ $end
$var wire 1 m! \debug[29]~output_o\ $end
$var wire 1 n! \debug[30]~output_o\ $end
$var wire 1 o! \debug[31]~output_o\ $end
$var wire 1 p! \clkOut~output_o\ $end
$var wire 1 q! \clkIn~input_o\ $end
$var wire 1 r! \s_count[0]~32_combout\ $end
$var wire 1 s! \s_count[0]~33\ $end
$var wire 1 t! \s_count[1]~34_combout\ $end
$var wire 1 u! \s_count[1]~35\ $end
$var wire 1 v! \s_count[2]~36_combout\ $end
$var wire 1 w! \s_count[2]~37\ $end
$var wire 1 x! \s_count[3]~38_combout\ $end
$var wire 1 y! \s_count[3]~39\ $end
$var wire 1 z! \s_count[4]~40_combout\ $end
$var wire 1 {! \s_count[4]~41\ $end
$var wire 1 |! \s_count[5]~42_combout\ $end
$var wire 1 }! \s_count[5]~43\ $end
$var wire 1 ~! \s_count[6]~44_combout\ $end
$var wire 1 !" \s_count[6]~45\ $end
$var wire 1 "" \s_count[7]~46_combout\ $end
$var wire 1 #" \s_count[7]~47\ $end
$var wire 1 $" \s_count[8]~48_combout\ $end
$var wire 1 %" \s_count[8]~49\ $end
$var wire 1 &" \s_count[9]~50_combout\ $end
$var wire 1 '" \s_count[9]~51\ $end
$var wire 1 (" \s_count[10]~52_combout\ $end
$var wire 1 )" \s_count[10]~53\ $end
$var wire 1 *" \s_count[11]~54_combout\ $end
$var wire 1 +" \s_count[11]~55\ $end
$var wire 1 ," \s_count[12]~56_combout\ $end
$var wire 1 -" \s_count[12]~57\ $end
$var wire 1 ." \s_count[13]~58_combout\ $end
$var wire 1 /" \s_count[13]~59\ $end
$var wire 1 0" \s_count[14]~60_combout\ $end
$var wire 1 1" \s_count[14]~61\ $end
$var wire 1 2" \s_count[15]~62_combout\ $end
$var wire 1 3" \s_count[15]~63\ $end
$var wire 1 4" \s_count[16]~64_combout\ $end
$var wire 1 5" \s_count[16]~65\ $end
$var wire 1 6" \s_count[17]~66_combout\ $end
$var wire 1 7" \s_count[17]~67\ $end
$var wire 1 8" \s_count[18]~68_combout\ $end
$var wire 1 9" \s_count[18]~69\ $end
$var wire 1 :" \s_count[19]~70_combout\ $end
$var wire 1 ;" \s_count[19]~71\ $end
$var wire 1 <" \s_count[20]~72_combout\ $end
$var wire 1 =" \s_count[20]~73\ $end
$var wire 1 >" \s_count[21]~74_combout\ $end
$var wire 1 ?" \s_count[21]~75\ $end
$var wire 1 @" \s_count[22]~76_combout\ $end
$var wire 1 A" \s_count[22]~77\ $end
$var wire 1 B" \s_count[23]~78_combout\ $end
$var wire 1 C" \s_count[23]~79\ $end
$var wire 1 D" \s_count[24]~80_combout\ $end
$var wire 1 E" \s_count[24]~81\ $end
$var wire 1 F" \s_count[25]~82_combout\ $end
$var wire 1 G" \s_count[25]~83\ $end
$var wire 1 H" \s_count[26]~84_combout\ $end
$var wire 1 I" \s_count[26]~85\ $end
$var wire 1 J" \s_count[27]~86_combout\ $end
$var wire 1 K" \s_count[27]~87\ $end
$var wire 1 L" \s_count[28]~88_combout\ $end
$var wire 1 M" \s_count[28]~89\ $end
$var wire 1 N" \s_count[29]~90_combout\ $end
$var wire 1 O" \s_count[29]~91\ $end
$var wire 1 P" \s_count[30]~92_combout\ $end
$var wire 1 Q" \s_count[30]~93\ $end
$var wire 1 R" \s_count[31]~94_combout\ $end
$var wire 1 S" \k[31]~input_o\ $end
$var wire 1 T" \k[30]~input_o\ $end
$var wire 1 U" \k[29]~input_o\ $end
$var wire 1 V" \k[28]~input_o\ $end
$var wire 1 W" \k[27]~input_o\ $end
$var wire 1 X" \k[26]~input_o\ $end
$var wire 1 Y" \k[25]~input_o\ $end
$var wire 1 Z" \k[24]~input_o\ $end
$var wire 1 [" \k[23]~input_o\ $end
$var wire 1 \" \k[22]~input_o\ $end
$var wire 1 ]" \k[21]~input_o\ $end
$var wire 1 ^" \k[20]~input_o\ $end
$var wire 1 _" \k[19]~input_o\ $end
$var wire 1 `" \k[18]~input_o\ $end
$var wire 1 a" \k[17]~input_o\ $end
$var wire 1 b" \k[16]~input_o\ $end
$var wire 1 c" \k[15]~input_o\ $end
$var wire 1 d" \k[14]~input_o\ $end
$var wire 1 e" \k[13]~input_o\ $end
$var wire 1 f" \k[12]~input_o\ $end
$var wire 1 g" \k[11]~input_o\ $end
$var wire 1 h" \k[10]~input_o\ $end
$var wire 1 i" \k[9]~input_o\ $end
$var wire 1 j" \k[8]~input_o\ $end
$var wire 1 k" \k[7]~input_o\ $end
$var wire 1 l" \k[6]~input_o\ $end
$var wire 1 m" \k[5]~input_o\ $end
$var wire 1 n" \k[4]~input_o\ $end
$var wire 1 o" \k[3]~input_o\ $end
$var wire 1 p" \k[2]~input_o\ $end
$var wire 1 q" \k[1]~input_o\ $end
$var wire 1 r" \k[0]~input_o\ $end
$var wire 1 s" \Add1~1\ $end
$var wire 1 t" \Add1~3\ $end
$var wire 1 u" \Add1~5\ $end
$var wire 1 v" \Add1~7\ $end
$var wire 1 w" \Add1~9\ $end
$var wire 1 x" \Add1~11\ $end
$var wire 1 y" \Add1~13\ $end
$var wire 1 z" \Add1~15\ $end
$var wire 1 {" \Add1~17\ $end
$var wire 1 |" \Add1~19\ $end
$var wire 1 }" \Add1~21\ $end
$var wire 1 ~" \Add1~23\ $end
$var wire 1 !# \Add1~25\ $end
$var wire 1 "# \Add1~27\ $end
$var wire 1 ## \Add1~29\ $end
$var wire 1 $# \Add1~31\ $end
$var wire 1 %# \Add1~33\ $end
$var wire 1 &# \Add1~35\ $end
$var wire 1 '# \Add1~37\ $end
$var wire 1 (# \Add1~39\ $end
$var wire 1 )# \Add1~41\ $end
$var wire 1 *# \Add1~43\ $end
$var wire 1 +# \Add1~45\ $end
$var wire 1 ,# \Add1~47\ $end
$var wire 1 -# \Add1~49\ $end
$var wire 1 .# \Add1~51\ $end
$var wire 1 /# \Add1~53\ $end
$var wire 1 0# \Add1~55\ $end
$var wire 1 1# \Add1~57\ $end
$var wire 1 2# \Add1~59\ $end
$var wire 1 3# \Add1~61\ $end
$var wire 1 4# \Add1~62_combout\ $end
$var wire 1 5# \Add1~60_combout\ $end
$var wire 1 6# \Add1~58_combout\ $end
$var wire 1 7# \Add1~56_combout\ $end
$var wire 1 8# \Add1~54_combout\ $end
$var wire 1 9# \Add1~52_combout\ $end
$var wire 1 :# \Add1~50_combout\ $end
$var wire 1 ;# \Add1~48_combout\ $end
$var wire 1 <# \Add1~46_combout\ $end
$var wire 1 =# \Add1~44_combout\ $end
$var wire 1 ># \Add1~42_combout\ $end
$var wire 1 ?# \Add1~40_combout\ $end
$var wire 1 @# \Add1~38_combout\ $end
$var wire 1 A# \Add1~36_combout\ $end
$var wire 1 B# \Add1~34_combout\ $end
$var wire 1 C# \Add1~32_combout\ $end
$var wire 1 D# \Add1~30_combout\ $end
$var wire 1 E# \Add1~28_combout\ $end
$var wire 1 F# \Add1~26_combout\ $end
$var wire 1 G# \Add1~24_combout\ $end
$var wire 1 H# \Add1~22_combout\ $end
$var wire 1 I# \Add1~20_combout\ $end
$var wire 1 J# \Add1~18_combout\ $end
$var wire 1 K# \Add1~16_combout\ $end
$var wire 1 L# \Add1~14_combout\ $end
$var wire 1 M# \Add1~12_combout\ $end
$var wire 1 N# \Add1~10_combout\ $end
$var wire 1 O# \Add1~8_combout\ $end
$var wire 1 P# \Add1~6_combout\ $end
$var wire 1 Q# \Add1~4_combout\ $end
$var wire 1 R# \Add1~2_combout\ $end
$var wire 1 S# \Add1~0_combout\ $end
$var wire 1 T# \LessThan1~1_cout\ $end
$var wire 1 U# \LessThan1~3_cout\ $end
$var wire 1 V# \LessThan1~5_cout\ $end
$var wire 1 W# \LessThan1~7_cout\ $end
$var wire 1 X# \LessThan1~9_cout\ $end
$var wire 1 Y# \LessThan1~11_cout\ $end
$var wire 1 Z# \LessThan1~13_cout\ $end
$var wire 1 [# \LessThan1~15_cout\ $end
$var wire 1 \# \LessThan1~17_cout\ $end
$var wire 1 ]# \LessThan1~19_cout\ $end
$var wire 1 ^# \LessThan1~21_cout\ $end
$var wire 1 _# \LessThan1~23_cout\ $end
$var wire 1 `# \LessThan1~25_cout\ $end
$var wire 1 a# \LessThan1~27_cout\ $end
$var wire 1 b# \LessThan1~29_cout\ $end
$var wire 1 c# \LessThan1~31_cout\ $end
$var wire 1 d# \LessThan1~33_cout\ $end
$var wire 1 e# \LessThan1~35_cout\ $end
$var wire 1 f# \LessThan1~37_cout\ $end
$var wire 1 g# \LessThan1~39_cout\ $end
$var wire 1 h# \LessThan1~41_cout\ $end
$var wire 1 i# \LessThan1~43_cout\ $end
$var wire 1 j# \LessThan1~45_cout\ $end
$var wire 1 k# \LessThan1~47_cout\ $end
$var wire 1 l# \LessThan1~49_cout\ $end
$var wire 1 m# \LessThan1~51_cout\ $end
$var wire 1 n# \LessThan1~53_cout\ $end
$var wire 1 o# \LessThan1~55_cout\ $end
$var wire 1 p# \LessThan1~57_cout\ $end
$var wire 1 q# \LessThan1~59_cout\ $end
$var wire 1 r# \LessThan1~61_cout\ $end
$var wire 1 s# \LessThan1~62_combout\ $end
$var wire 1 t# \Add0~1\ $end
$var wire 1 u# \Add0~3\ $end
$var wire 1 v# \Add0~5\ $end
$var wire 1 w# \Add0~7\ $end
$var wire 1 x# \Add0~9\ $end
$var wire 1 y# \Add0~11\ $end
$var wire 1 z# \Add0~13\ $end
$var wire 1 {# \Add0~15\ $end
$var wire 1 |# \Add0~17\ $end
$var wire 1 }# \Add0~19\ $end
$var wire 1 ~# \Add0~21\ $end
$var wire 1 !$ \Add0~23\ $end
$var wire 1 "$ \Add0~25\ $end
$var wire 1 #$ \Add0~27\ $end
$var wire 1 $$ \Add0~29\ $end
$var wire 1 %$ \Add0~31\ $end
$var wire 1 &$ \Add0~33\ $end
$var wire 1 '$ \Add0~35\ $end
$var wire 1 ($ \Add0~37\ $end
$var wire 1 )$ \Add0~39\ $end
$var wire 1 *$ \Add0~41\ $end
$var wire 1 +$ \Add0~43\ $end
$var wire 1 ,$ \Add0~45\ $end
$var wire 1 -$ \Add0~47\ $end
$var wire 1 .$ \Add0~49\ $end
$var wire 1 /$ \Add0~51\ $end
$var wire 1 0$ \Add0~53\ $end
$var wire 1 1$ \Add0~55\ $end
$var wire 1 2$ \Add0~57\ $end
$var wire 1 3$ \Add0~59\ $end
$var wire 1 4$ \Add0~61\ $end
$var wire 1 5$ \Add0~62_combout\ $end
$var wire 1 6$ \Add0~60_combout\ $end
$var wire 1 7$ \Add0~58_combout\ $end
$var wire 1 8$ \Add0~56_combout\ $end
$var wire 1 9$ \Add0~54_combout\ $end
$var wire 1 :$ \Add0~52_combout\ $end
$var wire 1 ;$ \Add0~50_combout\ $end
$var wire 1 <$ \Add0~48_combout\ $end
$var wire 1 =$ \Add0~46_combout\ $end
$var wire 1 >$ \Add0~44_combout\ $end
$var wire 1 ?$ \Add0~42_combout\ $end
$var wire 1 @$ \Add0~40_combout\ $end
$var wire 1 A$ \Add0~38_combout\ $end
$var wire 1 B$ \Add0~36_combout\ $end
$var wire 1 C$ \Add0~34_combout\ $end
$var wire 1 D$ \Add0~32_combout\ $end
$var wire 1 E$ \Add0~30_combout\ $end
$var wire 1 F$ \Add0~28_combout\ $end
$var wire 1 G$ \Add0~26_combout\ $end
$var wire 1 H$ \Add0~24_combout\ $end
$var wire 1 I$ \Add0~22_combout\ $end
$var wire 1 J$ \Add0~20_combout\ $end
$var wire 1 K$ \Add0~18_combout\ $end
$var wire 1 L$ \Add0~16_combout\ $end
$var wire 1 M$ \Add0~14_combout\ $end
$var wire 1 N$ \Add0~12_combout\ $end
$var wire 1 O$ \Add0~10_combout\ $end
$var wire 1 P$ \Add0~8_combout\ $end
$var wire 1 Q$ \Add0~6_combout\ $end
$var wire 1 R$ \Add0~4_combout\ $end
$var wire 1 S$ \Add0~2_combout\ $end
$var wire 1 T$ \Add0~0_combout\ $end
$var wire 1 U$ \LessThan0~1_cout\ $end
$var wire 1 V$ \LessThan0~3_cout\ $end
$var wire 1 W$ \LessThan0~5_cout\ $end
$var wire 1 X$ \LessThan0~7_cout\ $end
$var wire 1 Y$ \LessThan0~9_cout\ $end
$var wire 1 Z$ \LessThan0~11_cout\ $end
$var wire 1 [$ \LessThan0~13_cout\ $end
$var wire 1 \$ \LessThan0~15_cout\ $end
$var wire 1 ]$ \LessThan0~17_cout\ $end
$var wire 1 ^$ \LessThan0~19_cout\ $end
$var wire 1 _$ \LessThan0~21_cout\ $end
$var wire 1 `$ \LessThan0~23_cout\ $end
$var wire 1 a$ \LessThan0~25_cout\ $end
$var wire 1 b$ \LessThan0~27_cout\ $end
$var wire 1 c$ \LessThan0~29_cout\ $end
$var wire 1 d$ \LessThan0~31_cout\ $end
$var wire 1 e$ \LessThan0~33_cout\ $end
$var wire 1 f$ \LessThan0~35_cout\ $end
$var wire 1 g$ \LessThan0~37_cout\ $end
$var wire 1 h$ \LessThan0~39_cout\ $end
$var wire 1 i$ \LessThan0~41_cout\ $end
$var wire 1 j$ \LessThan0~43_cout\ $end
$var wire 1 k$ \LessThan0~45_cout\ $end
$var wire 1 l$ \LessThan0~47_cout\ $end
$var wire 1 m$ \LessThan0~49_cout\ $end
$var wire 1 n$ \LessThan0~51_cout\ $end
$var wire 1 o$ \LessThan0~53_cout\ $end
$var wire 1 p$ \LessThan0~55_cout\ $end
$var wire 1 q$ \LessThan0~57_cout\ $end
$var wire 1 r$ \LessThan0~59_cout\ $end
$var wire 1 s$ \LessThan0~61_cout\ $end
$var wire 1 t$ \LessThan0~62_combout\ $end
$var wire 1 u$ \clkOut~0_combout\ $end
$var wire 1 v$ \clkOut~reg0_q\ $end
$var wire 1 w$ s_count [31] $end
$var wire 1 x$ s_count [30] $end
$var wire 1 y$ s_count [29] $end
$var wire 1 z$ s_count [28] $end
$var wire 1 {$ s_count [27] $end
$var wire 1 |$ s_count [26] $end
$var wire 1 }$ s_count [25] $end
$var wire 1 ~$ s_count [24] $end
$var wire 1 !% s_count [23] $end
$var wire 1 "% s_count [22] $end
$var wire 1 #% s_count [21] $end
$var wire 1 $% s_count [20] $end
$var wire 1 %% s_count [19] $end
$var wire 1 &% s_count [18] $end
$var wire 1 '% s_count [17] $end
$var wire 1 (% s_count [16] $end
$var wire 1 )% s_count [15] $end
$var wire 1 *% s_count [14] $end
$var wire 1 +% s_count [13] $end
$var wire 1 ,% s_count [12] $end
$var wire 1 -% s_count [11] $end
$var wire 1 .% s_count [10] $end
$var wire 1 /% s_count [9] $end
$var wire 1 0% s_count [8] $end
$var wire 1 1% s_count [7] $end
$var wire 1 2% s_count [6] $end
$var wire 1 3% s_count [5] $end
$var wire 1 4% s_count [4] $end
$var wire 1 5% s_count [3] $end
$var wire 1 6% s_count [2] $end
$var wire 1 7% s_count [1] $end
$var wire 1 8% s_count [0] $end
$var wire 1 9% \ALT_INV_LessThan1~62_combout\ $end
$upscope $end
$upscope $end
$enddefinitions $end
#0
$dumpvars
0!
0"
0c
1d
xe
1f
1g
1h
1i
1j
1k
0l
0O!
0P!
0Q!
0R!
0S!
0T!
0U!
0V!
0W!
0X!
0Y!
0Z!
0[!
0\!
0]!
0^!
0_!
0`!
0a!
0b!
0c!
0d!
0e!
0f!
0g!
0h!
0i!
0j!
0k!
0l!
0m!
0n!
0o!
0p!
0q!
1r!
0s!
0t!
1u!
0v!
0w!
0x!
1y!
0z!
0{!
0|!
1}!
0~!
0!"
0""
1#"
0$"
0%"
0&"
1'"
0("
0)"
0*"
1+"
0,"
0-"
0."
1/"
00"
01"
02"
13"
04"
05"
06"
17"
08"
09"
0:"
1;"
0<"
0="
0>"
1?"
0@"
0A"
0B"
1C"
0D"
0E"
0F"
1G"
0H"
0I"
0J"
1K"
0L"
0M"
0N"
1O"
0P"
0Q"
0R"
0S"
0T"
0U"
0V"
0W"
0X"
0Y"
0Z"
0["
0\"
0]"
0^"
0_"
0`"
0a"
0b"
0c"
0d"
0e"
0f"
0g"
0h"
0i"
0j"
0k"
0l"
0m"
0n"
0o"
1p"
0q"
0r"
0s"
1t"
1u"
0v"
1w"
0x"
1y"
0z"
1{"
0|"
1}"
0~"
1!#
0"#
1##
0$#
1%#
0&#
1'#
0(#
1)#
0*#
1+#
0,#
1-#
0.#
1/#
00#
11#
02#
13#
04#
05#
06#
07#
08#
09#
0:#
0;#
0<#
0=#
0>#
0?#
0@#
0A#
0B#
0C#
0D#
0E#
0F#
0G#
0H#
0I#
0J#
0K#
0L#
0M#
0N#
0O#
0P#
0Q#
1R#
1S#
1T#
0U#
1V#
0W#
1X#
0Y#
1Z#
0[#
1\#
0]#
1^#
0_#
1`#
0a#
1b#
0c#
1d#
0e#
1f#
0g#
1h#
0i#
1j#
0k#
1l#
0m#
1n#
0o#
1p#
0q#
1r#
1s#
0t#
0u#
1v#
0w#
1x#
0y#
1z#
0{#
1|#
0}#
1~#
0!$
1"$
0#$
1$$
0%$
1&$
0'$
1($
0)$
1*$
0+$
1,$
0-$
1.$
0/$
10$
01$
12$
03$
14$
05$
06$
07$
08$
09$
0:$
0;$
0<$
0=$
0>$
0?$
0@$
0A$
0B$
0C$
0D$
0E$
0F$
0G$
0H$
0I$
0J$
0K$
0L$
0M$
0N$
0O$
0P$
0Q$
0R$
0S$
1T$
1U$
0V$
1W$
0X$
1Y$
0Z$
1[$
0\$
1]$
0^$
1_$
0`$
1a$
0b$
1c$
0d$
1e$
0f$
1g$
0h$
1i$
0j$
1k$
0l$
1m$
0n$
1o$
0p$
1q$
0r$
1s$
1t$
1u$
0v$
09%
0C
0D
0E
0F
0G
0H
0I
0J
0K
0L
0M
0N
0O
0P
0Q
0R
0S
0T
0U
0V
0W
0X
0Y
0Z
0[
0\
0]
0^
0_
1`
0a
0b
0m
0n
0o
0p
0q
0r
0s
0t
0u
0v
0w
0x
0y
0z
0{
0|
0}
0~
0!!
0"!
0#!
0$!
0%!
0&!
0'!
0(!
0)!
0*!
0+!
1,!
0-!
0.!
0/!
00!
01!
02!
03!
04!
05!
06!
07!
08!
09!
0:!
0;!
0<!
0=!
0>!
0?!
0@!
0A!
0B!
0C!
0D!
0E!
0F!
0G!
0H!
0I!
0J!
0K!
0L!
0M!
0N!
0w$
0x$
0y$
0z$
0{$
0|$
0}$
0~$
0!%
0"%
0#%
0$%
0%%
0&%
0'%
0(%
0)%
0*%
0+%
0,%
0-%
0.%
0/%
00%
01%
02%
03%
04%
05%
06%
07%
08%
0#
0$
0%
0&
0'
0(
0)
0*
0+
0,
0-
0.
0/
00
01
02
03
04
05
06
07
08
09
0:
0;
0<
0=
0>
0?
0@
0A
0B
$end
#25000
1!
1l
1q!
18%
1v$
0r!
1s!
0T#
0U$
1V$
1t!
1p!
1P!
0W$
1O!
1N!
1"
1B
1X$
0Y$
1Z$
0[$
1\$
0]$
1^$
0_$
1`$
0a$
1b$
0c$
1d$
0e$
1f$
0g$
1h$
0i$
1j$
0k$
1l$
0m$
1n$
0o$
1p$
0q$
1r$
0s$
0t$
0u$
#50000
0!
0l
0q!
#75000
1!
1l
1q!
17%
08%
0v$
1r!
0s!
1T#
1U$
0t!
0u!
1U#
0V#
1v!
0U#
1t!
1u!
0p!
0P!
1Q!
0v!
1V#
1W#
0O!
0N!
1M!
0"
0B
1A
0X#
0W#
1X#
1Y#
0Z#
0Y#
1Z#
1[#
0\#
0[#
1\#
1]#
0^#
0]#
1^#
1_#
0`#
0_#
1`#
1a#
0b#
0a#
1b#
1c#
0d#
0c#
1d#
1e#
0f#
0e#
1f#
1g#
0h#
0g#
1h#
1i#
0j#
0i#
1j#
1k#
0l#
0k#
1l#
1m#
0n#
0m#
1n#
1o#
0p#
0o#
1p#
1q#
0r#
0q#
1r#
0s#
19%
1u$
1s#
09%
0u$
#100000
0!
0l
0q!
#125000
1!
1l
1q!
18%
0r!
1s!
0T#
0U$
1U#
0t!
0u!
1P!
1v!
0V#
1N!
1B
1W#
0X#
1Y#
0Z#
1[#
0\#
1]#
0^#
1_#
0`#
1a#
0b#
1c#
0d#
1e#
0f#
1g#
0h#
1i#
0j#
1k#
0l#
1m#
0n#
1o#
0p#
1q#
0r#
0s#
19%
1u$
#150000
0!
0l
0q!
#175000
1!
1l
1q!
07%
08%
1v$
1r!
0s!
1T#
1U$
1t!
1u!
0U#
1V#
0v!
0V$
0t!
1p!
0P!
0Q!
1W$
0W#
1O!
0N!
0M!
1"
0B
0A
1X#
0X$
1Y$
0Y#
1Z#
0Z$
1[$
0[#
1\#
0\$
1]$
0]#
1^#
0^$
1_$
0_#
1`#
0`$
1a$
0a#
1b#
0b$
1c$
0c#
1d#
0d$
1e$
0e#
1f#
0f$
1g$
0g#
1h#
0h$
1i$
0i#
1j#
0j$
1k$
0k#
1l#
0l$
1m$
0m#
1n#
0n$
1o$
0o#
1p#
0p$
1q$
0q#
1r#
0r$
1s$
1s#
09%
0u$
1t$
1u$
#200000
0!
0l
0q!
#225000
1!
1l
1q!
18%
0r!
1s!
0T#
0U$
1V$
1t!
1P!
0W$
1N!
1B
1X$
0Y$
1Z$
0[$
1\$
0]$
1^$
0_$
1`$
0a$
1b$
0c$
1d$
0e$
1f$
0g$
1h$
0i$
1j$
0k$
1l$
0m$
1n$
0o$
1p$
0q$
1r$
0s$
0t$
0u$
#250000
0!
0l
0q!
#275000
1!
1l
1q!
17%
08%
0v$
1r!
0s!
1T#
1U$
0t!
0u!
1U#
0V#
1v!
0U#
1t!
1u!
0p!
0P!
1Q!
0v!
1V#
1W#
0O!
0N!
1M!
0"
0B
1A
0X#
0W#
1X#
1Y#
0Z#
0Y#
1Z#
1[#
0\#
0[#
1\#
1]#
0^#
0]#
1^#
1_#
0`#
0_#
1`#
1a#
0b#
0a#
1b#
1c#
0d#
0c#
1d#
1e#
0f#
0e#
1f#
1g#
0h#
0g#
1h#
1i#
0j#
0i#
1j#
1k#
0l#
0k#
1l#
1m#
0n#
0m#
1n#
1o#
0p#
0o#
1p#
1q#
0r#
0q#
1r#
0s#
19%
1u$
1s#
09%
0u$
#300000
0!
0l
0q!
#325000
1!
1l
1q!
18%
0r!
1s!
0T#
0U$
1U#
0t!
0u!
1P!
1v!
0V#
1N!
1B
1W#
0X#
1Y#
0Z#
1[#
0\#
1]#
0^#
1_#
0`#
1a#
0b#
1c#
0d#
1e#
0f#
1g#
0h#
1i#
0j#
1k#
0l#
1m#
0n#
1o#
0p#
1q#
0r#
0s#
19%
1u$
#350000
0!
0l
0q!
#375000
1!
1l
1q!
07%
08%
1v$
1r!
0s!
1T#
1U$
1t!
1u!
0U#
1V#
0v!
0V$
0t!
1p!
0P!
0Q!
1W$
0W#
1O!
0N!
0M!
1"
0B
0A
1X#
0X$
1Y$
0Y#
1Z#
0Z$
1[$
0[#
1\#
0\$
1]$
0]#
1^#
0^$
1_$
0_#
1`#
0`$
1a$
0a#
1b#
0b$
1c$
0c#
1d#
0d$
1e$
0e#
1f#
0f$
1g$
0g#
1h#
0h$
1i$
0i#
1j#
0j$
1k$
0k#
1l#
0l$
1m$
0m#
1n#
0n$
1o$
0o#
1p#
0p$
1q$
0q#
1r#
0r$
1s$
1s#
09%
0u$
1t$
1u$
#400000
0!
0l
0q!
